…
The following code assesses the most commonly observed values for
snowfall.

``` r
noaa_clean %>% 
  count(snow) %>% 
  arrange(desc(n))
```

    ## # A tibble: 248 x 2
    ##     snow       n
    ##    <int>   <int>
    ##  1     0 1112758
    ##  2    25   15809
    ##  3    13   12460
    ##  4    51    9252
    ##  5     5    5669
    ##  6     8    5380
    ##  7    76    5296
    ##  8     3    5276
    ##  9    38    5050
    ## 10   102    3386
    ## # … with 238 more rows
…
